   0.0000000000000000e+00   0.0000000000000000e+00
   0.0000000000000000e+00  -5.1880012243748679e+00
   0.0000000000000000e+00  -3.9361666071299770e+00
   0.0000000000000000e+00  -2.8651231606436443e+00
   0.0000000000000000e+00  -1.8760350201548464e+00
   0.0000000000000000e+00  -9.2886899738106421e-01
   0.0000000000000000e+00   9.2886899738106465e-01
   0.0000000000000000e+00   1.8760350201548457e+00
   0.0000000000000000e+00   2.8651231606436443e+00
   0.0000000000000000e+00   3.9361666071299748e+00
   0.0000000000000000e+00   5.1880012243748697e+00
  -5.1880012243748679e+00   0.0000000000000000e+00
  -5.1880012243748679e+00  -5.1880012243748679e+00
  -5.1880012243748679e+00  -3.9361666071299770e+00
  -5.1880012243748679e+00  -2.8651231606436443e+00
  -5.1880012243748679e+00  -1.8760350201548464e+00
  -5.1880012243748679e+00  -9.2886899738106421e-01
  -5.1880012243748679e+00   9.2886899738106465e-01
  -5.1880012243748679e+00   1.8760350201548457e+00
  -5.1880012243748679e+00   2.8651231606436443e+00
  -5.1880012243748679e+00   3.9361666071299748e+00
  -5.1880012243748679e+00   5.1880012243748697e+00
  -3.9361666071299770e+00   0.0000000000000000e+00
  -3.9361666071299770e+00  -5.1880012243748679e+00
  -3.9361666071299770e+00  -3.9361666071299770e+00
  -3.9361666071299770e+00  -2.8651231606436443e+00
  -3.9361666071299770e+00  -1.8760350201548464e+00
  -3.9361666071299770e+00  -9.2886899738106421e-01
  -3.9361666071299770e+00   9.2886899738106465e-01
  -3.9361666071299770e+00   1.8760350201548457e+00
  -3.9361666071299770e+00   2.8651231606436443e+00
  -3.9361666071299770e+00   3.9361666071299748e+00
  -3.9361666071299770e+00   5.1880012243748697e+00
  -2.8651231606436443e+00   0.0000000000000000e+00
  -2.8651231606436443e+00  -5.1880012243748679e+00
  -2.8651231606436443e+00  -3.9361666071299770e+00
  -2.8651231606436443e+00  -2.8651231606436443e+00
  -2.8651231606436443e+00  -1.8760350201548464e+00
  -2.8651231606436443e+00  -9.2886899738106421e-01
  -2.8651231606436443e+00   9.2886899738106465e-01
  -2.8651231606436443e+00   1.8760350201548457e+00
  -2.8651231606436443e+00   2.8651231606436443e+00
  -2.8651231606436443e+00   3.9361666071299748e+00
  -2.8651231606436443e+00   5.1880012243748697e+00
  -1.8760350201548464e+00   0.0000000000000000e+00
  -1.8760350201548464e+00  -5.1880012243748679e+00
  -1.8760350201548464e+00  -3.9361666071299770e+00
  -1.8760350201548464e+00  -2.8651231606436443e+00
  -1.8760350201548464e+00  -1.8760350201548464e+00
  -1.8760350201548464e+00  -9.2886899738106421e-01
  -1.8760350201548464e+00   9.2886899738106465e-01
  -1.8760350201548464e+00   1.8760350201548457e+00
  -1.8760350201548464e+00   2.8651231606436443e+00
  -1.8760350201548464e+00   3.9361666071299748e+00
  -1.8760350201548464e+00   5.1880012243748697e+00
  -9.2886899738106421e-01   0.0000000000000000e+00
  -9.2886899738106421e-01  -5.1880012243748679e+00
  -9.2886899738106421e-01  -3.9361666071299770e+00
  -9.2886899738106421e-01  -2.8651231606436443e+00
  -9.2886899738106421e-01  -1.8760350201548464e+00
  -9.2886899738106421e-01  -9.2886899738106421e-01
  -9.2886899738106421e-01   9.2886899738106465e-01
  -9.2886899738106421e-01   1.8760350201548457e+00
  -9.2886899738106421e-01   2.8651231606436443e+00
  -9.2886899738106421e-01   3.9361666071299748e+00
  -9.2886899738106421e-01   5.1880012243748697e+00
   9.2886899738106465e-01   0.0000000000000000e+00
   9.2886899738106465e-01  -5.1880012243748679e+00
   9.2886899738106465e-01  -3.9361666071299770e+00
   9.2886899738106465e-01  -2.8651231606436443e+00
   9.2886899738106465e-01  -1.8760350201548464e+00
   9.2886899738106465e-01  -9.2886899738106421e-01
   9.2886899738106465e-01   9.2886899738106465e-01
   9.2886899738106465e-01   1.8760350201548457e+00
   9.2886899738106465e-01   2.8651231606436443e+00
   9.2886899738106465e-01   3.9361666071299748e+00
   9.2886899738106465e-01   5.1880012243748697e+00
   1.8760350201548457e+00   0.0000000000000000e+00
   1.8760350201548457e+00  -5.1880012243748679e+00
   1.8760350201548457e+00  -3.9361666071299770e+00
   1.8760350201548457e+00  -2.8651231606436443e+00
   1.8760350201548457e+00  -1.8760350201548464e+00
   1.8760350201548457e+00  -9.2886899738106421e-01
   1.8760350201548457e+00   9.2886899738106465e-01
   1.8760350201548457e+00   1.8760350201548457e+00
   1.8760350201548457e+00   2.8651231606436443e+00
   1.8760350201548457e+00   3.9361666071299748e+00
   1.8760350201548457e+00   5.1880012243748697e+00
   2.8651231606436443e+00   0.0000000000000000e+00
   2.8651231606436443e+00  -5.1880012243748679e+00
   2.8651231606436443e+00  -3.9361666071299770e+00
   2.8651231606436443e+00  -2.8651231606436443e+00
   2.8651231606436443e+00  -1.8760350201548464e+00
   2.8651231606436443e+00  -9.2886899738106421e-01
   2.8651231606436443e+00   9.2886899738106465e-01
   2.8651231606436443e+00   1.8760350201548457e+00
   2.8651231606436443e+00   2.8651231606436443e+00
   2.8651231606436443e+00   3.9361666071299748e+00
   2.8651231606436443e+00   5.1880012243748697e+00
   3.9361666071299748e+00   0.0000000000000000e+00
   3.9361666071299748e+00  -5.1880012243748679e+00
   3.9361666071299748e+00  -3.9361666071299770e+00
   3.9361666071299748e+00  -2.8651231606436443e+00
   3.9361666071299748e+00  -1.8760350201548464e+00
   3.9361666071299748e+00  -9.2886899738106421e-01
   3.9361666071299748e+00   9.2886899738106465e-01
   3.9361666071299748e+00   1.8760350201548457e+00
   3.9361666071299748e+00   2.8651231606436443e+00
   3.9361666071299748e+00   3.9361666071299748e+00
   3.9361666071299748e+00   5.1880012243748697e+00
   5.1880012243748697e+00   0.0000000000000000e+00
   5.1880012243748697e+00  -5.1880012243748679e+00
   5.1880012243748697e+00  -3.9361666071299770e+00
   5.1880012243748697e+00  -2.8651231606436443e+00
   5.1880012243748697e+00  -1.8760350201548464e+00
   5.1880012243748697e+00  -9.2886899738106421e-01
   5.1880012243748697e+00   9.2886899738106465e-01
   5.1880012243748697e+00   1.8760350201548457e+00
   5.1880012243748697e+00   2.8651231606436443e+00
   5.1880012243748697e+00   3.9361666071299748e+00
   5.1880012243748697e+00   5.1880012243748697e+00
