   1.3646254338895056e-01
   3.0002792875830108e-07
   7.2282848700480320e-05
   2.4825296108188150e-03
   2.4432206340823742e-02
   8.9485594181437797e-02
   8.9485594181444444e-02
   2.4432206340817428e-02
   2.4825296108188818e-03
   7.2282848700480889e-05
   3.0002792875830044e-07
   3.0002792875830108e-07
   6.5964444014814466e-13
   1.5892180258242764e-10
   5.4581147230429632e-09
   5.3716896090230122e-08
   1.9674393287130078e-07
   1.9674393287131537e-07
   5.3716896090216246e-08
   5.4581147230431104e-09
   1.5892180258242885e-10
   6.5964444014814324e-13
   7.2282848700480320e-05
   1.5892180258242764e-10
   3.8287504296065940e-08
   1.3149711840106917e-06
   1.2941496109442107e-05
   4.7399627065819366e-05
   4.7399627065822876e-05
   1.2941496109438761e-05
   1.3149711840107268e-06
   3.8287504296066244e-08
   1.5892180258242728e-10
   2.4825296108188150e-03
   5.4581147230429632e-09
   1.3149711840106917e-06
   4.5162233646974759e-05
   4.4447123871825252e-04
   1.6279239106950633e-03
   1.6279239106951841e-03
   4.4447123871813764e-04
   4.5162233646975979e-05
   1.3149711840107018e-06
   5.4581147230429516e-09
   2.4432206340823742e-02
   5.3716896090230122e-08
   1.2941496109442107e-05
   4.4447123871825252e-04
   4.3743337318518849e-03
   1.6021469681541438e-02
   1.6021469681542628e-02
   4.3743337318507538e-03
   4.4447123871826455e-04
   1.2941496109442209e-05
   5.3716896090230003e-08
   8.9485594181437797e-02
   1.9674393287130078e-07
   4.7399627065819366e-05
   1.6279239106950633e-03
   1.6021469681541438e-02
   5.8680362883030933e-02
   5.8680362883035291e-02
   1.6021469681537299e-02
   1.6279239106951071e-03
   4.7399627065819732e-05
   1.9674393287130033e-07
   8.9485594181444444e-02
   1.9674393287131537e-07
   4.7399627065822876e-05
   1.6279239106951841e-03
   1.6021469681542628e-02
   5.8680362883035291e-02
   5.8680362883039648e-02
   1.6021469681538489e-02
   1.6279239106952281e-03
   4.7399627065823249e-05
   1.9674393287131494e-07
   2.4432206340817428e-02
   5.3716896090216246e-08
   1.2941496109438761e-05
   4.4447123871813764e-04
   4.3743337318507538e-03
   1.6021469681537299e-02
   1.6021469681538489e-02
   4.3743337318496237e-03
   4.4447123871814968e-04
   1.2941496109438863e-05
   5.3716896090216120e-08
   2.4825296108188818e-03
   5.4581147230431104e-09
   1.3149711840107268e-06
   4.5162233646975979e-05
   4.4447123871826455e-04
   1.6279239106951071e-03
   1.6279239106952281e-03
   4.4447123871814968e-04
   4.5162233646977192e-05
   1.3149711840107372e-06
   5.4581147230430989e-09
   7.2282848700480889e-05
   1.5892180258242885e-10
   3.8287504296066244e-08
   1.3149711840107018e-06
   1.2941496109442209e-05
   4.7399627065819732e-05
   4.7399627065823249e-05
   1.2941496109438863e-05
   1.3149711840107372e-06
   3.8287504296066535e-08
   1.5892180258242852e-10
   3.0002792875830044e-07
   6.5964444014814324e-13
   1.5892180258242728e-10
   5.4581147230429516e-09
   5.3716896090230003e-08
   1.9674393287130033e-07
   1.9674393287131494e-07
   5.3716896090216120e-08
   5.4581147230430989e-09
   1.5892180258242852e-10
   6.5964444014814163e-13
